1614250506;0.028764009475708;
1614250581;0.062820911407471;/login/?redirect=auth/agilitysalt_cdn/auto/?redirect=admin/10
1614250589;0.039748907089233;/login/?redirect=auth/agilitysalt_cdn/auto/?redirect=admin/10
1614250591;0.060082912445068;/login/?redirect=auth/agilitysalt_cdn/auto/?redirect=admin/10
1614250595;0.060589075088501;/login/local//?redirect=auth/agilitysalt_cdn/auto/?redirect=admin/10
1614250595;0.081067085266113;/auth/agilitysalt_cdn/auto/?redirect=admin/10
1614250596;0.042297124862671;/api/get/local/applications
1614250596;0.16147089004517;/ajax/get/local/applications
1614250598;0.11186385154724;/apps
1614250598;0.034581184387207;/api/get/local/applications
1614250598;0.082275867462158;/ajax/get/local/applications
1614250691;0.10270094871521;/apps/1
1614250692;0.018325090408325;/api/get/local/applications
1614250692;0.066192150115967;/ajax/get/local/applications
1614250698;0.1025378704071;/translations
1614250698;0.020774126052856;/api/get/local/applications
1614250698;0.06972599029541;/ajax/get/local/applications
1614250699;0.10035920143127;/translations/1
1614250700;0.051921129226685;/api/get/local/applications
1614250700;0.1228928565979;/ajax/get/local/applications
1614250704;0.044887065887451;/api/get/local/translations/164
1614250707;0.041962146759033;/api/get/local/translations/165
1614250711;0.053491830825806;/api/set/local/translations/164
1614250730;0.037534952163696;/api/get/local/translations/164
1614250737;0.049062013626099;/api/get/local/translations/165
1614250741;0.045229911804199;/api/set/local/translations/164
1614250747;0.052263975143433;/api/set/local/translations/165
1614250752;0.054583787918091;/api/set/local/translations/request_update/1
1614250756;0.10481119155884;/dashBoard
1614250756;0.021687030792236;/api/get/local/applications
1614250756;0.094245910644531;/ajax/get/local/applications
1614250768;0.071426153182983;/dashBoard
1614251640;0.020488977432251;/
1614251640;0.041118144989014;/dashBoard
1614251640;0.059361934661865;/api/get/local/applications
1614251640;0.11556720733643;/ajax/get/local/applications
1614251662;0.02161717414856;/api/set/remote/translations/missing
1614251662;0.12171697616577;/dashBoard
1614251665;0.045333862304688;/api/set/remote/translations/missing
1614251665;0.18534898757935;/tech-admin/gen-time
1614251686;0.063437938690186;/dashBoard
1614251688;0.057180881500244;/tech-admin/php-info
1614251690;0.066370010375977;/dashBoard
1614251785;0.031424999237061;/tech-admin/php-info
1614251787;0.051442861557007;/dashBoard
1614251788;0.028118133544922;/api/get/local/applications
1614251788;0.095951080322266;/ajax/get/local/applications
1614251792;0.06786584854126;/dashBoard
1614251794;0.058563947677612;/tech-admin/action-log
1614251796;0.070305824279785;/dashBoard
1614251798;0.038421154022217;/tech-admin/php-info
1614251841;0.035933971405029;/tech-admin/php-info
1614251846;0.050935983657837;/tech-admin/php-info
1614251848;0.031282901763916;/tech-admin/deamon
1614251848;0.055737018585205;/tech-admin/php-info
1614251854;0.054008960723877;/tech-admin/php-info
1614251856;0.073359966278076;/dashBoard
1614251858;0.045310020446777;/admin
1614251860;0.072283029556274;/tech-admin/php-info
1614251866;0.051804065704346;/tech-admin/php-info
1614251869;0.057837009429932;/tech-admin/php-info
1614251870;0.061621904373169;/tech-admin/deamon
1614251872;0.080404996871948;/tech-admin/php-info
1614251874;0.056708812713623;/dashBoard
1614251880;0.037431955337524;/admin
1614251882;0.16446113586426;/admin/10
1614251890;0.10810995101929;/admin/10
1614251890;0.047434091567993;/admin/10
1614251912;0.078146934509277;/langs
1614251912;0.0503089427948;/api/get/local/applications
1614251912;0.12724995613098;/ajax/get/local/applications
1614251914;0.056283950805664;/translations
1614251917;0.074079990386963;/translations/1
1614251919;0.044942140579224;/admin
1614251921;0.059242963790894;/admin/10
1614252035;0.065323114395142;/tech-admin/gen-time
1614252105;0.056243896484375;/tech-admin/gen-time
1614252105;0.037190198898315;/api/get/local/applications
1614252105;0.091629028320312;/ajax/get/local/applications
1614252123;0.063119888305664;/dashBoard
1614252125;0.062988996505737;/auth/agilitysalt_eshop/auto
1614252126;0.072696208953857;/auth/agilitysalt_eshop/auto
1614252126;0.039191961288452;/api/get/userLogin
1614252126;0.02352499961853;/api/set/remote/translations/missing
1614252127;0.025721073150635;/api/get/local/applications
1614252220;0.055965900421143;/api/set/remote/translations/missing
1614252324;0.024200916290283;/api/get/local/applications
1614252332;0.026721954345703;/
1614252332;0.036407947540283;/dashBoard
1614252333;0.020525932312012;/api/get/local/applications
1614252333;0.073720932006836;/ajax/get/local/applications
1614255021;0.044731140136719;/tech-admin/gen-time
1614255021;0.048979043960571;/login/?redirect=tech-admin/gen-time
1614255022;0.05433988571167;/login/local//?redirect=tech-admin/gen-time
1614255022;0.052484035491943;/tech-admin/gen-time
1614255022;0.039970874786377;/api/get/local/applications
1614255022;0.10874485969543;/ajax/get/local/applications
1614255052;0.084199905395508;/dashBoard
1614255054;0.061515092849731;/auth/agilitysalt_cdn/auto
1614255056;0.043200969696045;/auth/agilitysalt_cdn/auto
1614255056;0.048932075500488;/api/get/userLogin
1614255056;0.023585081100464;/api/set/remote/translations/missing
1614255056;0.027779817581177;/api/get/local/applications
1614255235;0.020174980163574;/api/get/local/applications
1614269067;0.036391973495483;/settings
1614269067;0.027631998062134;/login/?redirect=settings
1614269069;0.063426971435547;/login/local//?redirect=settings
1614269069;0.069236993789673;/settings
1614269069;0.032617807388306;/api/get/local/applications
1614269069;0.12024402618408;/ajax/get/local/applications
1614269074;0.096889019012451;/settings/8
1614277844;0.014783143997192;/auth/agilitysalt_cdn/auto/?redirect=settings
1614277844;0.035095930099487;/login/?redirect=auth/agilitysalt_cdn/auto/?redirect=settings
1614277845;0.05269718170166;/login/local//?redirect=auth/agilitysalt_cdn/auto/?redirect=settings
1614277845;0.07096791267395;/auth/agilitysalt_cdn/auto/?redirect=settings
1614277846;0.048060894012451;/api/get/local/applications
1614277846;0.1027090549469;/ajax/get/local/applications
1614277847;0.06196117401123;/auth/agilitysalt_cdn/auto/?redirect=settings
1614277847;0.035416126251221;/api/get/userLogin
1614277848;0.024970769882202;/api/get/local/applications
1614328116;0.40281200408936;/
1614328116;0.13275599479675;/dashBoard
1614328117;0.39579606056213;/login/?redirect=dashBoard
1614328119;0.078775882720947;/login/local//?redirect=dashBoard
1614328119;0.16901111602783;/dashBoard
1614328120;0.055915832519531;/api/get/local/applications
1614328120;0.28173494338989;/ajax/get/local/applications
1614328142;0.1500940322876;/departments
1614328144;0.12515306472778;/departments/1
1614435175;0.31462907791138;/settings/8
1614435176;0.28075122833252;/login/?redirect=settings/8
1614435177;0.064371109008789;/login/local//?redirect=settings/8
1614435177;0.063050031661987;/settings/8
1614435177;0.080919981002808;/api/get/local/applications
1614435177;0.21802401542664;/ajax/get/local/applications
1614436759;0.060235023498535;/dashBoard
1614436759;0.022303819656372;/api/get/local/applications
1614436759;0.078388929367065;/ajax/get/local/applications
1614436764;0.21132898330688;/tech-admin/deamon
1614438774;0.076136112213135;/tech-admin/deamon
1614438809;0.048028945922852;/api/set/remote/translations/missing
1614438809;0.15483999252319;/tech-admin/deamon
1614438809;0.019030094146729;/api/get/local/applications
1614438809;0.061937093734741;/ajax/get/local/applications
1614438847;0.032307147979736;/tech-admin/deamon
1614438938;0.024308919906616;/api/set/remote/translations/missing
1614438938;0.13962197303772;/tech-admin/deamon
1614438938;0.020982027053833;/api/get/local/applications
1614438938;0.070472002029419;/ajax/get/local/applications
1614438989;0.10037994384766;/dashBoard
1614438997;0.065430164337158;/tech-admin/deamon
1614439047;0.040151119232178;/tech-admin/deamon
1614439049;0.028026103973389;/tasks/2
1614439050;0.049601078033447;/error/404
1614439058;0.076050043106079;/tech-admin/deamon
1614439086;0.049928903579712;/tech-admin/deamon
1614439086;0.022759914398193;/api/get/local/applications
1614439086;0.074525833129883;/ajax/get/local/applications
1614439087;0.073774814605713;/tech-admin/deamon/tasks/2
1614439549;0.060192108154297;/tech-admin/deamon
1614439549;0.022969007492065;/api/get/local/applications
1614439549;0.077033996582031;/ajax/get/local/applications
1614439597;0.085778951644897;/tech-admin/deamon/tasks/2
1614439682;0.02700400352478;/api/set/remote/translations/missing
1614439683;0.090917110443115;/tech-admin/deamon/tasks/2
1614439683;0.027365922927856;/api/get/local/applications
1614439683;0.087784051895142;/ajax/get/local/applications
1614439707;0.049486875534058;/tech-admin/deamon/tasks/2
1614439768;0.030590057373047;/tech-admin/deamon/tasks/2
1614439846;0.02751088142395;/api/set/remote/translations/missing
1614439846;0.11367106437683;/tech-admin/deamon/tasks/2
1614439847;0.020542144775391;/api/get/local/applications
1614439847;0.071476936340332;/ajax/get/local/applications
1614439855;0.057044982910156;/tech-admin/deamon/tasks/2
1614439871;0.064911127090454;/tech-admin/deamon/tasks/2/queue-now
1614440825;0.031777143478394;/tech-admin/deamon/tasks/2/queue-now
1614440825;0.036157846450806;/tech-admin/deamon/tasks/2
1614440825;0.02122688293457;/api/get/local/applications
1614440825;0.080054044723511;/ajax/get/local/applications
1614440912;0.024832963943481;/api/set/remote/translations/missing
1614440912;0.11957216262817;/tech-admin/deamon/tasks/2
1614440931;0.056941986083984;/tech-admin/deamon/tasks/2
1614441032;0.060080051422119;/tech-admin/deamon
1614441033;0.019115924835205;/api/get/local/applications
1614441033;0.065518856048584;/ajax/get/local/applications
1614441040;0.070684194564819;/tech-admin/deamon/tasks/2
1614441041;0.055276155471802;/tech-admin/deamon
1614441104;0.081753969192505;/tech-admin/deamon
1614441178;0.048272132873535;/tech-admin/deamon
1614441179;0.025960922241211;/api/get/local/applications
1614441179;0.082895040512085;/ajax/get/local/applications
1614441219;0.070633172988892;/tech-admin/deamon
1614441290;0.02222204208374;/api/set/remote/translations/missing
1614441290;0.091301918029785;/tech-admin/deamon
1614441297;0.082539796829224;/tech-admin/deamon/tasks/2
1614441298;0.063931226730347;/tech-admin/deamon/tasks/2/queue-now
1614441298;0.083986043930054;/tech-admin/deamon/tasks/2
1614441303;0.064348220825195;/tech-admin/deamon
1614441304;0.025084018707275;/api/get/local/applications
1614441304;0.08447003364563;/ajax/get/local/applications
1614441315;0.056987047195435;/admin
1614441320;0.096805095672607;/tech-admin/deamon
1614441379;0.05784797668457;/tech-admin/deamon
1614441381;0.065505981445312;/admin
1614441393;0.050595998764038;/admin
1614441402;0.050559043884277;/tech-admin/php-info
1614441404;0.062836885452271;/tech-admin/gen-time
1614441417;0.08365797996521;/tech-admin/deamon
1614441610;0.023930072784424;/api/set/remote/translations/missing
1614441610;0.14053606987;/tech-admin/deamon
1614441611;0.043697118759155;/api/get/local/applications
1614441611;0.091494083404541;/ajax/get/local/applications
1614441622;0.076968908309937;/settings
1614441626;0.088389873504639;/settings/update
1614441626;0.087229013442993;/settings
1614441628;0.034886121749878;/api/set/remote/translations/missing
1614441628;0.14798998832703;/tech-admin/deamon
1614441644;0.02342414855957;/api/set/remote/translations/missing
1614441644;0.093222141265869;/tech-admin/deamon
1614441650;0.069678068161011;/settings
1614441654;0.070791006088257;/settings/update
1614441654;0.045831918716431;/settings
1614441657;0.06468391418457;/tech-admin/deamon
1614441743;0.035156965255737;/tech-admin/deamon
1614441744;0.024434089660645;/api/get/local/applications
1614441744;0.082870006561279;/ajax/get/local/applications
1614441744;0.022414922714233;/api/set/remote/translations/missing
1614441744;0.12228202819824;/tech-admin/deamon/tasks/2
1614441757;0.061790943145752;/tech-admin/deamon/tasks/2
1614441774;0.044553995132446;/api/set/remote/translations/missing
1614441774;0.1347119808197;/tech-admin/deamon/tasks/2
1614441817;0.04102897644043;/tech-admin/deamon/tasks/2
1614441844;0.038869857788086;/tech-admin/deamon/tasks/2
1614441864;0.052366018295288;/tech-admin/deamon
1614441868;0.054527044296265;/tech-admin/deamon/tasks/2
1614441868;0.023273944854736;/api/get/local/applications
1614441868;0.076496839523315;/ajax/get/local/applications
1614441870;0.040058851242065;/tech-admin/deamon/tasks/2/queue-now
1614441870;0.059010982513428;/tech-admin/deamon/tasks/2
1614441876;0.065660953521729;/tech-admin/deamon/tasks/2/abort-all
1614442220;0.099200010299683;/tech-admin/deamon/tasks/2/abort-all
1614442221;0.019552946090698;/api/get/local/applications
1614442221;0.088844060897827;/ajax/get/local/applications
1614442305;0.082380771636963;/tech-admin/deamon/tasks/2/abort-all
1614442336;0.026225090026855;/api/set/remote/translations/missing
1614442336;0.15886497497559;/tech-admin/deamon/tasks/2/abort-all
1614442402;0.045387029647827;/tech-admin/deamon/tasks/2/abort-all
1614442403;0.06110405921936;/tech-admin/deamon/tasks/2
1614442403;0.022251129150391;/api/get/local/applications
1614442403;0.076503038406372;/ajax/get/local/applications
1614442483;0.061501026153564;/tech-admin/deamon/tasks/2
1614442483;0.086594104766846;/tech-admin/deamon/tasks/2
1614442499;0.088822841644287;/tech-admin/deamon
1614442501;0.085314989089966;/tech-admin/deamon/tasks/2
1614442525;0.067700862884521;/tech-admin/deamon/tasks/2
1614442526;0.026226997375488;/api/get/local/applications
1614442526;0.074790000915527;/ajax/get/local/applications
1614442575;0.048963069915771;/tech-admin/deamon/tasks/2
1614442587;0.062247037887573;/tech-admin/deamon/tasks/2/abort-all
1614442588;0.06312894821167;/tech-admin/deamon/tasks/2
1614442593;0.054999828338623;/tech-admin/deamon/tasks/2
1614442593;0.11092710494995;/tech-admin/deamon/tasks/2
1614442658;0.098948955535889;/tech-admin/deamon
1614442658;0.021941184997559;/api/get/local/applications
1614442658;0.07363486289978;/ajax/get/local/applications
1614442663;0.062186002731323;/tech-admin/deamon/tasks/4
1614442665;0.050053834915161;/tech-admin/deamon/tasks/4/queue-now
1614442665;0.066226959228516;/tech-admin/deamon/tasks/4
1614442668;0.10562300682068;/tech-admin/deamon
1614442692;0.077011823654175;/tech-admin/deamon/queue/4
1614442867;0.060766220092773;/tech-admin/deamon/queue/4
1614442867;0.04353404045105;/api/get/local/applications
1614442867;0.096621990203857;/ajax/get/local/applications
1614442955;0.046838998794556;/tech-admin/deamon/queue/4
1614442984;0.029766082763672;/tech-admin/deamon/queue/4
1614443010;0.051270008087158;/tech-admin/deamon/queue/4
1614443010;0.03095006942749;/api/get/local/applications
1614443010;0.085469961166382;/ajax/get/local/applications
1614443020;0.028937101364136;/tech-admin/deamon/queue/4
1614443048;0.046236991882324;/tech-admin/deamon/queue/4
1614443071;0.064419031143188;/tech-admin/deamon/queue/4
1614443135;0.031554937362671;/tech-admin/deamon/queue/4
1614443135;0.021074056625366;/api/get/local/applications
1614443135;0.078282833099365;/ajax/get/local/applications
1614443180;0.054245948791504;/tech-admin/deamon/queue/4
1614443210;0.050688028335571;/tech-admin/deamon/queue/4
1614443230;0.05809497833252;/tech-admin/deamon/queue/4
1614443244;0.043139934539795;/tech-admin/deamon/queue/4
1614443262;0.030391216278076;/api/set/remote/translations/missing
1614443262;0.14498710632324;/tech-admin/deamon/queue/4
1614443263;0.019298076629639;/api/get/local/applications
1614443263;0.068440198898315;/ajax/get/local/applications
1614443278;0.060543060302734;/tech-admin/deamon/queue/4
1614443305;0.051125049591064;/tech-admin/deamon/queue/4
1614443312;0.085030078887939;/tech-admin/deamon
1614448830;0.050822973251343;/auth/agilitysalt_cdn/auto/?redirect=deamon
1614448830;0.030925035476685;/login/?redirect=auth/agilitysalt_cdn/auto/?redirect=deamon
1614448831;0.058935880661011;/login/local//?redirect=auth/agilitysalt_cdn/auto/?redirect=deamon
1614448831;0.090207099914551;/auth/agilitysalt_cdn/auto/?redirect=deamon
1614448831;0.029474020004272;/api/get/local/applications
1614448831;0.12986898422241;/ajax/get/local/applications
1614448833;0.059337139129639;/auth/agilitysalt_cdn/auto/?redirect=deamon
1614448833;0.042513847351074;/api/get/userLogin
1614448859;0.053699016571045;/auth/agilitysalt_cdn/auto/?redirect=deamon
1614448862;0.032799005508423;/admin
1614448867;0.074026823043823;/dashBoard
1614448869;0.053579092025757;/auth/agilitysalt_cdn/auto
1614448870;0.058067083358765;/auth/agilitysalt_cdn/auto
1614448870;0.022207975387573;/api/get/local/applications
1614448881;0.025354146957397;/
1614448882;0.056797027587891;/dashBoard
1614448890;0.082584857940674;/auth/agilitysalt_eshop/auto
1614448891;0.058627843856812;/auth/agilitysalt_eshop/auto
1614448891;0.019134044647217;/api/get/userLogin
1614448892;0.023133993148804;/api/get/local/applications
1614448898;0.016359090805054;/
1614448898;0.033781051635742;/dashBoard
1614448900;0.088536977767944;/tech-admin/deamon
1614449077;0.10286498069763;/tech-admin/deamon
1614449078;0.022073030471802;/api/get/local/applications
1614449078;0.071292161941528;/ajax/get/local/applications
1614449814;0.096752882003784;/tech-admin/deamon
1614449814;0.023367881774902;/api/get/local/applications
1614449814;0.08150315284729;/ajax/get/local/applications
1614449820;0.081041097640991;/tech-admin/deamon/tasks/5
1614449832;0.070945978164673;/tech-admin/deamon/tasks/5
1614449833;0.093501091003418;/tech-admin/deamon
1614449853;0.04058313369751;/tech-admin/deamon/tasks/1
1614449855;0.057716131210327;/tech-admin/deamon/tasks/1/queue-now
1614449855;0.046025037765503;/tech-admin/deamon/tasks/1
1614449980;0.017609119415283;/
1614449980;0.039454936981201;/dashBoard
1614449986;0.07697606086731;/cronDeamon
1614451049;0.069460868835449;/cronDeamon
1614451114;0.086971044540405;/cronDeamon
1614451177;0.094563007354736;/tech-admin/deamon
1614451178;0.022541046142578;/api/get/local/applications
1614451178;0.07519793510437;/ajax/get/local/applications
1614451183;0.076184988021851;/tech-admin/deamon/tasks/2
1614451185;0.052076816558838;/tech-admin/deamon/tasks/2/queue-now
1614451185;0.059290885925293;/tech-admin/deamon/tasks/2
1614451188;0.090612173080444;/tech-admin/deamon
1614451199;0.10392999649048;/cronDeamon
1614451203;0.060089826583862;/cronDeamon
1614451233;0.10595107078552;/cronDeamon
1614451264;0.086539030075073;/cronDeamon
1614451271;0.091470956802368;/cronDeamon
1614451280;0.092106103897095;/cronDeamon
1614451306;0.063620090484619;/cronDeamon
1614451313;0.061706066131592;/cronDeamon
1614451441;0.12540507316589;/cronDeamon
1614451464;0.084060192108154;/cronDeamon
1614451517;0.057793140411377;/cronDeamon
1614451533;0.47176504135132;/cronDeamon
1614451545;0.089030027389526;/cronDeamon
1614451601;0.052314043045044;/cronDeamon
1614451606;0.075478076934814;/cronDeamon
1614451616;0.098888874053955;/tech-admin/deamon
1614451616;0.034749984741211;/api/get/local/applications
1614451616;0.08722186088562;/ajax/get/local/applications
1614451624;0.083611965179443;/tech-admin/deamon
1614451660;0.08189582824707;/cronDeamon
1614451693;0.060468912124634;/cronDeamon
1614451866;0.083750009536743;/cronDeamon
1614451904;0.061692953109741;/cronDeamon
1614451913;0.093396902084351;/tech-admin/deamon/tasks/2
1614451914;0.039533853530884;/api/get/local/applications
1614451914;0.10271120071411;/ajax/get/local/applications
1614451914;0.05747389793396;/tech-admin/deamon
1614451916;0.079979181289673;/tech-admin/deamon/tasks/3
1614451918;0.050425052642822;/tech-admin/deamon/tasks/3/queue-now
1614451918;0.07785701751709;/tech-admin/deamon/tasks/3
1614451918;0.041100978851318;/tech-admin/deamon/tasks/3
1614451919;0.083722114562988;/tech-admin/deamon
1614451923;0.055669069290161;/tech-admin/deamon/tasks/4
1614451925;0.022516012191772;/tech-admin/deamon/tasks/4/queue-now
1614451925;0.065850019454956;/tech-admin/deamon/tasks/4
1614451925;0.074044942855835;/tech-admin/deamon/tasks/4
1614451926;0.086771011352539;/tech-admin/deamon
1614451928;0.071105003356934;/tech-admin/deamon/tasks/1
1614451929;0.049365997314453;/tech-admin/deamon/tasks/1/queue-now
1614451929;0.040531158447266;/tech-admin/deamon/tasks/1
1614451930;0.086097002029419;/tech-admin/deamon/tasks/1
1614451931;0.08334493637085;/tech-admin/deamon
1614451934;0.053807973861694;/cronDeamon
1614451947;0.075515985488892;/cronDeamon
1614451979;0.083333969116211;/cronDeamon
1614451983;0.048255205154419;/cronDeamon
1614451988;0.078338146209717;/cronDeamon
1614452040;0.094865083694458;/cronDeamon
1614452053;0.092558145523071;/cronDeamon
1614452057;0.098719120025635;/cronDeamon
1614452112;0.10198783874512;/cronDeamon
1614452122;0.099977970123291;/cronDeamon
1614452124;0.080392837524414;/tech-admin/deamon
1614452124;0.02361011505127;/api/get/local/applications
1614452124;0.073550939559937;/ajax/get/local/applications
1614452197;0.12860321998596;/cronDeamon
1614452202;0.12286806106567;/cronDeamon
1614452223;0.065412998199463;/cronDeamon
1614452230;0.082298040390015;/cronDeamon
1614452232;0.064946889877319;/cronDeamon
1614452234;0.053842067718506;/cronDeamon
1614452274;0.089411020278931;/tech-admin/deamon
1614452275;0.044172048568726;/api/get/local/applications
1614452275;0.1089780330658;/ajax/get/local/applications
1614452292;0.078402042388916;/tech-admin/deamon
1614452518;0.054321050643921;/tech-admin/deamon/tasks/2
1614452519;0.034018039703369;/api/get/local/applications
1614452519;0.08517599105835;/ajax/get/local/applications
1614452520;0.039695024490356;/tech-admin/deamon/tasks/2/queue-now
1614452520;0.048229217529297;/tech-admin/deamon/tasks/2
1614452525;0.091312885284424;/tech-admin/deamon
1614452527;0.087143182754517;/cronDeamon
1614452539;0.037370920181274;/cronDeamon
1614452543;0.044427156448364;/tech-admin/deamon/tasks/2
1614452544;0.079596996307373;/tech-admin/deamon/tasks/2/queue-now
1614452544;0.041778087615967;/tech-admin/deamon/tasks/2
1614452546;0.11105918884277;/cronDeamon
1614452571;0.049839019775391;/tech-admin/deamon/tasks/2/queue-now
1614452571;0.043896913528442;/tech-admin/deamon/tasks/2
1614452573;0.097844123840332;/cronDeamon
1614452600;0.055371999740601;/cronDeamon
1614452602;0.059979915618896;/tech-admin/deamon/tasks/2/queue-now
1614452602;0.076616048812866;/tech-admin/deamon/tasks/2
1614452604;0.050734996795654;/cronDeamon
1614452605;0.088747024536133;/cronDeamon
1614452606;0.033971071243286;/cronDeamon
1614452611;0.084017038345337;/tech-admin/deamon/tasks/2/queue-now
1614452611;0.047272920608521;/tech-admin/deamon/tasks/2
1614452612;0.078809022903442;/cronDeamon
1614452614;0.065871953964233;/cronDeamon
1614452617;0.058170080184937;/tech-admin/deamon/tasks/2
1614452618;0.083977937698364;/tech-admin/deamon
1614452647;0.076874971389771;/tech-admin/deamon/tasks/2
1614452647;0.036036014556885;/api/get/local/applications
1614452647;0.087378025054932;/ajax/get/local/applications
1614452648;0.046669006347656;/tech-admin/deamon/tasks/2/queue-now
1614452648;0.044631958007812;/tech-admin/deamon/tasks/2
1614452650;0.079586029052734;/cronDeamon
1614452653;0.082129001617432;/tech-admin/deamon
1614452657;0.069294929504395;/cronDeamon
1614452692;0.086937189102173;/tech-admin/deamon/tasks/2
1614452693;0.063493013381958;/tech-admin/deamon/tasks/2/queue-now
1614452693;0.07222580909729;/tech-admin/deamon/tasks/2
1614452694;0.087488174438477;/tech-admin/deamon
1614452695;0.10177111625671;/cronDeamon
1614452696;0.069643974304199;/cronDeamon
1614452697;0.073336839675903;/tech-admin/deamon
1614452704;0.070708990097046;/tech-admin/deamon/tasks/2
1614452706;0.080142021179199;/tech-admin/deamon/tasks/2/queue-now
1614452706;0.044312000274658;/tech-admin/deamon/tasks/2
1614452710;0.067967891693115;/cronDeamon
1614452711;0.065700054168701;/cronDeamon
1614452713;0.071695804595947;/tech-admin/deamon/tasks/2
1614452755;0.057603120803833;/tech-admin/deamon/tasks/2/queue-now
1614452755;0.04236102104187;/tech-admin/deamon/tasks/2
1614452756;0.099271059036255;/cronDeamon
1614452763;0.034785032272339;/cronDeamon
1614452775;0.0554039478302;/tech-admin/deamon/tasks/2/queue-now
1614452775;0.083826065063477;/tech-admin/deamon/tasks/2
1614452775;0.023271083831787;/api/get/local/applications
1614452775;0.075546026229858;/ajax/get/local/applications
1614452777;0.059977054595947;/cronDeamon
1614452780;0.078469038009644;/cronDeamon
1614452783;0.079157114028931;/tech-admin/deamon/tasks/2
1614452819;0.060362100601196;/tech-admin/deamon/tasks/2/queue-now
1614452819;0.10500597953796;/tech-admin/deamon/tasks/2
1614452824;0.072371006011963;/cronDeamon
1614452826;0.070924043655396;/cronDeamon
1614452832;0.11088514328003;/tech-admin/deamon/tasks/2
1614453152;0.04566502571106;/tech-admin/deamon/tasks/2/queue-now
1614453152;0.045235157012939;/tech-admin/deamon/tasks/2
1614453152;0.021761894226074;/api/get/local/applications
1614453152;0.077291011810303;/ajax/get/local/applications
1614453154;0.075393915176392;/cronDeamon
1614453205;0.055360078811646;/tech-admin/deamon/tasks/2/queue-now
1614453205;0.078319072723389;/tech-admin/deamon/tasks/2
1614453207;0.079385995864868;/cronDeamon
1614453212;0.081465005874634;/cronDeamon
1614453242;0.025376081466675;/tech-admin/deamon/tasks/2/queue-now
1614453242;0.045233964920044;/tech-admin/deamon/tasks/2
1614453244;0.05638599395752;/cronDeamon
1614453247;0.067235946655273;/cronDeamon
1614453260;0.075400114059448;/tech-admin/deamon/tasks/2/queue-now
1614453260;0.04361891746521;/tech-admin/deamon/tasks/2
1614453262;0.088117837905884;/cronDeamon
1614453264;0.067686080932617;/cronDeamon
1614453317;0.066529989242554;/tech-admin/deamon/tasks/2/queue-now
1614453317;0.10357594490051;/tech-admin/deamon/tasks/2
1614453317;0.02153491973877;/api/get/local/applications
1614453318;0.072077989578247;/ajax/get/local/applications
1614453319;0.054263830184937;/cronDeamon
1614453363;0.099310159683228;/tech-admin/deamon/tasks/2
1614453369;0.086336135864258;/tech-admin/deamon
1614453372;0.071153163909912;/tech-admin/deamon/tasks/1
1614453373;0.05980396270752;/tech-admin/deamon/tasks/1/queue-now
1614453373;0.076056003570557;/tech-admin/deamon/tasks/1
1614453376;0.11194014549255;/cronDeamon
1614453466;0.074309110641479;/cronDeamon
1614453467;0.059213161468506;/cronDeamon
1614453469;0.070463895797729;/tech-admin/deamon/tasks/1
1614453469;0.04475998878479;/api/get/local/applications
1614453469;0.096951007843018;/ajax/get/local/applications
1614453560;0.057920932769775;/tech-admin/deamon/tasks/1/queue-now
1614453560;0.04498815536499;/tech-admin/deamon/tasks/1
1614453561;0.095186948776245;/cronDeamon
1614454147;0.039624929428101;/tech-admin/deamon/tasks/1/queue-now
1614454147;0.073328018188477;/tech-admin/deamon/tasks/1
1614454148;0.055057048797607;/api/get/local/applications
1614454148;0.10652184486389;/ajax/get/local/applications
1614454149;0.085024833679199;/cronDeamon
1614454235;0.053378105163574;/tech-admin/deamon/tasks/1/queue-now
1614454235;0.044864892959595;/tech-admin/deamon/tasks/1
1614454236;0.078155994415283;/cronDeamon
1614454331;0.083000183105469;/tech-admin/deamon/tasks/1/queue-now
1614454331;0.044513940811157;/tech-admin/deamon/tasks/1
1614454331;0.021841049194336;/api/get/local/applications
1614454331;0.072840929031372;/ajax/get/local/applications
1614454333;0.061177015304565;/cronDeamon
1614454360;0.046115159988403;/tech-admin/deamon/tasks/1/queue-now
1614454360;0.048105001449585;/tech-admin/deamon/tasks/1
1614454361;0.078702926635742;/cronDeamon
1614455102;0.034136056900024;/tech-admin/deamon/tasks/1/queue-now
1614455102;0.04491400718689;/tech-admin/deamon/tasks/1
1614455102;0.024217128753662;/api/get/local/applications
1614455102;0.086208820343018;/ajax/get/local/applications
1614455106;0.10965204238892;/cronDeamon
1614455147;0.049844980239868;/tech-admin/deamon/tasks/1/queue-now
1614455147;0.040734052658081;/tech-admin/deamon/tasks/1
1614455183;0.082432985305786;/tech-admin/deamon/tasks/1/queue-now
1614455184;0.040868043899536;/tech-admin/deamon/tasks/1
1614455280;0.053463935852051;/cronDeamon
1614455283;0.062757968902588;/tech-admin/deamon/tasks/1/queue-now
1614455283;0.044987916946411;/tech-admin/deamon/tasks/1
1614455284;0.046134948730469;/api/get/local/applications
1614455284;0.10705184936523;/ajax/get/local/applications
1614455285;0.53370213508606;/cronDeamon
1614455407;0.063629865646362;/tech-admin/deamon/tasks/1/queue-now
1614455407;0.060790061950684;/tech-admin/deamon/tasks/1
1614455407;0.022993087768555;/api/get/local/applications
1614455407;0.0764000415802;/ajax/get/local/applications
1614455410;0.3476459980011;/cronDeamon
1614455530;0.053942918777466;/tech-admin/deamon/tasks/1/queue-now
1614455531;0.029152154922485;/tech-admin/deamon/tasks/1
1614455531;0.020266056060791;/api/get/local/applications
1614455531;0.068349838256836;/ajax/get/local/applications
1614455532;0.11392998695374;/cronDeamon
1614455602;0.092046976089478;/tech-admin/deamon
1614455630;0.10859608650208;/tech-admin/deamon
1614455749;0.093305110931396;/tech-admin/deamon/tasks/1
1614455750;0.021440029144287;/api/get/local/applications
1614455750;0.074681997299194;/ajax/get/local/applications
1614455750;0.050477981567383;/tech-admin/deamon/tasks/1/queue-now
1614455750;0.051499128341675;/tech-admin/deamon/tasks/1
1614455752;0.10233902931213;/cronDeamon
1614455779;0.053521871566772;/tech-admin/deamon/tasks/1/queue-now
1614455779;0.043241024017334;/tech-admin/deamon/tasks/1
1614455781;0.087867021560669;/cronDeamon
1614455793;0.06853199005127;/tech-admin/deamon
1614455803;0.073531866073608;/tech-admin/deamon
1614455839;0.18468689918518;/cronDeamon
1614455846;0.08556604385376;/tech-admin/deamon
1614455876;0.071645975112915;/tech-admin/deamon
1614455877;0.028913974761963;/api/get/local/applications
1614455877;0.082166194915771;/ajax/get/local/applications
1614455923;0.091217994689941;/tech-admin/deamon
1614456050;0.034466981887817;/tech-admin/deamon/tasks/1
1614456051;0.026005983352661;/api/get/local/applications
1614456051;0.079435110092163;/ajax/get/local/applications
1614456051;0.073830127716064;/tech-admin/deamon/tasks/1/queue-now
1614456051;0.055734872817993;/tech-admin/deamon/tasks/1
1614456052;0.047036170959473;/tech-admin/deamon/tasks/1/queue-now
1614456052;0.048516988754272;/tech-admin/deamon/tasks/1
1614456054;0.046913146972656;/cronDeamon
1614456058;0.050732135772705;/cronDeamon
1614456060;0.080284118652344;/tech-admin/deamon/tasks/1
1614456064;0.060935974121094;/cronDeamon
1614456065;0.086054086685181;/cronDeamon
1614456066;0.057500839233398;/cronDeamon
1614456144;0.051316022872925;/cronDeamon
1614456146;0.042614936828613;/cronDeamon
1614456165;0.11925101280212;/cronDeamon
1614456174;0.087703943252563;/tech-admin/deamon/tasks/1
1614456174;0.026179075241089;/api/get/local/applications
1614456174;0.09805703163147;/ajax/get/local/applications
1614456175;0.086365938186646;/tech-admin/deamon
1614456211;0.054375886917114;/tech-admin/deamon/tasks/1
1614456212;0.06809401512146;/tech-admin/deamon/tasks/1/queue-now
1614456212;0.06279993057251;/tech-admin/deamon/tasks/1
1614456215;0.1113429069519;/cronDeamon
1614456327;0.031069993972778;/tech-admin/deamon/tasks/1/queue-now
1614456327;0.0519859790802;/tech-admin/deamon/tasks/1
1614456327;0.021879196166992;/api/get/local/applications
1614456327;0.091678142547607;/ajax/get/local/applications
1614456328;0.08989691734314;/cronDeamon
1614456511;0.082068204879761;/tech-admin/deamon
1614456511;0.020341873168945;/api/get/local/applications
1614456511;0.073255062103271;/ajax/get/local/applications
1614456514;0.086698055267334;/tech-admin/deamon/tasks/4
1614456518;0.048989057540894;/tech-admin/deamon/tasks/4/abort-all
1614456518;0.081712007522583;/tech-admin/deamon/tasks/4
1614456519;0.11526298522949;/tech-admin/deamon
1614456520;0.073821067810059;/tech-admin/deamon/tasks/3
1614456522;0.052254915237427;/tech-admin/deamon/tasks/3/abort-all
1614456522;0.078104972839355;/tech-admin/deamon/tasks/3
1614456523;0.090857982635498;/tech-admin/deamon
1614456530;0.077207088470459;/tech-admin/deamon/tasks/1
1614456544;0.04839015007019;/tech-admin/deamon/tasks/1/queue-now
1614456544;0.08049201965332;/tech-admin/deamon/tasks/1
1614456546;0.080471038818359;/cronDeamon
1614456554;0.072813987731934;/tech-admin/deamon/tasks/1/queue-now
1614456554;0.026044845581055;/tech-admin/deamon/tasks/1
1614456556;0.08640193939209;/cronDeamon
1614456659;0.028638124465942;/tech-admin/deamon/tasks/1/queue-now
1614456659;0.041295051574707;/tech-admin/deamon/tasks/1
1614456660;0.045212984085083;/api/get/local/applications
1614456660;0.10911917686462;/ajax/get/local/applications
1614456662;0.11237192153931;/cronDeamon
1614456751;0.057758092880249;/tech-admin/deamon/tasks/1/queue-now
1614456751;0.055515050888062;/tech-admin/deamon/tasks/1
1614456753;0.1030158996582;/cronDeamon
1614456768;0.089557886123657;/tech-admin/deamon
1614456791;0.068957805633545;/tech-admin/deamon
1614456791;0.021687984466553;/api/get/local/applications
1614456791;0.069589853286743;/ajax/get/local/applications
1614456810;0.036416053771973;/
1614456810;0.058071851730347;/dashBoard
1614456814;0.096606969833374;/tech-admin/deamon
1614456856;0.068125009536743;/tech-admin/deamon/tasks/1
1614456857;0.062435865402222;/tech-admin/deamon/tasks/1/queue-now
1614456857;0.040093898773193;/tech-admin/deamon/tasks/1
1614456858;0.047598838806152;/api/set/remote/translations/missing
1614456858;0.18509006500244;/tech-admin/deamon
1614456868;0.061931848526001;/tech-admin/deamon/tasks/1
1614456876;0.037377834320068;/tech-admin/deamon/tasks/1/queue-now
1614456877;0.089730978012085;/tech-admin/deamon/tasks/1
1614456883;0.11012697219849;/tech-admin/deamon/tasks/1
1614456884;0.094175100326538;/tech-admin/deamon
1614456926;0.092131853103638;/tech-admin/deamon
1614456926;0.050793886184692;/api/get/local/applications
1614456926;0.11417412757874;/ajax/get/local/applications
1614456956;0.064001083374023;/tech-admin/deamon
1614456990;0.10121989250183;/tech-admin/deamon/tasks/1
1614456991;0.056972980499268;/tech-admin/deamon/tasks/1/queue-now
1614456991;0.042335987091064;/tech-admin/deamon/tasks/1
1614456992;0.087997913360596;/tech-admin/deamon
1614457000;0.1135790348053;/cronDeamon
1614457002;0.056643962860107;/cronDeamon
1614457003;0.055801153182983;/cronDeamon
1614457004;0.06599497795105;/cronDeamon
1614457005;0.065747022628784;/cronDeamon
1614457005;0.050706148147583;/cronDeamon
1614457007;0.11375188827515;/tech-admin/deamon
1614457089;0.081817865371704;/tech-admin/deamon
1614457089;0.019583940505981;/api/get/local/applications
1614457089;0.06690502166748;/ajax/get/local/applications
1614457094;0.069962024688721;/tech-admin/deamon/tasks/1
1614457094;0.078675031661987;/tech-admin/deamon/tasks/1/queue-now
1614457094;0.03982400894165;/tech-admin/deamon/tasks/1
1614457095;0.10165596008301;/tech-admin/deamon
1614457151;0.09113597869873;/tech-admin/deamon
1614457165;0.099756956100464;/tech-admin/deamon
1614457182;0.086534023284912;/tech-admin/deamon
1614457202;0.023115873336792;/api/set/remote/translations/missing
1614457202;0.11558103561401;/tech-admin/deamon
1614457204;0.04541802406311;/tech-admin/deamon/tasks/1
1614457253;0.069260120391846;/tech-admin/deamon/tasks/1
1614457253;0.019649028778076;/api/get/local/applications
1614457253;0.064316034317017;/ajax/get/local/applications
1614457285;0.067874908447266;/tech-admin/deamon/tasks/1
1614457302;0.084551095962524;/cronDeamon
1614457304;0.070008039474487;/tech-admin/deamon/tasks/1
1614457338;0.068300008773804;/tech-admin/deamon/tasks/1
1614457343;0.073194980621338;/tech-admin/deamon
1614457382;0.028607130050659;/admin
1614457383;0.044386148452759;/api/get/local/applications
1614457383;0.090331077575684;/ajax/get/local/applications
1614457384;0.055116891860962;/admin/13
1614457391;0.1291708946228;/admin/13
1614457391;0.071868896484375;/admin/13
1614457394;0.078696966171265;/admin/13/admin_login
1614457394;0.032176971435547;/dashBoard
1614457394;0.07258415222168;/api/get/local/applications
1614457394;0.1390860080719;/ajax/get/local/applications
1614457396;0.041604042053223;/tech-admin/deamon
1614457396;0.034827947616577;/error/401
1614457410;0.06413197517395;/error/401
1614457412;0.061721086502075;/tech-admin/deamon
1614457414;0.044198036193848;/tech-admin/deamon/tasks/1
1614457552;0.05787992477417;/api/set/remote/translations/missing
1614457552;0.17815399169922;/tech-admin/deamon/tasks/1
1614457552;0.048856019973755;/api/get/local/applications
1614457552;0.14547610282898;/ajax/get/local/applications
1614457568;0.079948902130127;/tech-admin/deamon/tasks/1
1614457576;0.071692943572998;/tech-admin/deamon/tasks/1
1614457593;0.083539009094238;/tech-admin/deamon/tasks/1
1614457636;0.083751916885376;/tech-admin/deamon/tasks/1
1614457662;0.10818314552307;/tech-admin/deamon
1614457668;0.071655988693237;/tech-admin/deamon/tasks/4
1614457669;0.091004133224487;/tech-admin/deamon
1614457670;0.038973093032837;/tech-admin/deamon/queue/52
1614457671;0.081817150115967;/tech-admin/deamon
1614457675;0.10507392883301;/tech-admin/deamon/tasks/1
1614457675;0.045199155807495;/api/get/local/applications
1614457675;0.090870141983032;/ajax/get/local/applications
1614457682;0.033390998840332;/cronDeamon
1614457685;0.079450130462646;/tech-admin/deamon
1614457775;0.084559917449951;/tech-admin/deamon
1614457779;0.05162501335144;/login/adminlogin/logback
1614457779;0.076948881149292;/admin
1614457779;0.017920017242432;/api/get/local/applications
1614457779;0.059787034988403;/ajax/get/local/applications
1614457783;0.086982011795044;/admin/10
1614457786;0.043061971664429;/api/set/remote/translations/missing
1614457786;0.15527606010437;/admin/0
1614457796;0.070571184158325;/admin/0/admin_login
1614457797;0.05576491355896;/error/401
1614457797;0.090035915374756;/admin/0
1614457799;0.055145978927612;/admin/0/activate_account
1614457799;0.067621946334839;/admin/0
1614457801;0.04438591003418;/admin/0/deactivate_account
1614457801;0.052191972732544;/admin/0
1614457863;0.052614212036133;/admin/0
1614457895;0.025397062301636;/api/set/remote/translations/missing
1614457895;0.10632991790771;/admin/0
1614457916;0.063404083251953;/admin/0
1614457916;0.017927885055542;/api/get/local/applications
1614457916;0.060102939605713;/ajax/get/local/applications
1614457924;0.04315710067749;/admin/0
1614457977;0.037770986557007;/admin/0
1614458015;0.072487115859985;/admin/0
1614458037;0.076199054718018;/admin/0
1614458037;0.053283929824829;/api/get/local/applications
1614458037;0.14294981956482;/ajax/get/local/applications
1614458082;0.019239902496338;/api/set/remote/translations/missing
1614458082;0.07784104347229;/admin/0
1614458158;0.058509111404419;/tech-admin/gen-time
1614458158;0.086326122283936;/api/get/local/applications
1614458158;0.18762803077698;/ajax/get/local/applications
1614458329;0.054275989532471;/cronDeamon
1614458330;0.088582992553711;/tech-admin/gen-time
1614458331;0.019081115722656;/api/get/local/applications
1614458331;0.086019992828369;/ajax/get/local/applications
1614458347;0.072743892669678;/dashBoard
1614458349;0.048954010009766;/auth/agilitysalt_cdn/auto
1614458350;0.078407049179077;/auth/agilitysalt_cdn/auto
1614458350;0.037395000457764;/api/get/userLogin
1614458350;0.023047924041748;/api/get/local/applications
1614458636;0.045074939727783;/
1614458636;0.090363025665283;/dashBoard
1614458636;0.022666931152344;/api/get/local/applications
1614458636;0.075644016265869;/ajax/get/local/applications
1614458663;0.096233129501343;/cronDeamon
1614458799;0.064111948013306;/cronDeamon
1614458804;0.064204931259155;/tech-admin/gen-time
1614458805;0.060731172561646;/api/get/local/applications
1614458805;0.14021182060242;/ajax/get/local/applications
1614458806;0.089371919631958;/tech-admin/deamon
1614458808;0.069756031036377;/tech-admin/deamon/tasks/4
1614458809;0.055366992950439;/tech-admin/deamon/tasks/4/queue-now
1614458809;0.050498962402344;/tech-admin/deamon/tasks/4
1614458811;0.12200498580933;/cronDeamon
1614458976;0.059710025787354;/tech-admin/deamon/tasks/4/queue-now
1614458976;0.047297954559326;/tech-admin/deamon/tasks/4
1614458976;0.06906795501709;/api/get/local/applications
1614458976;0.12009501457214;/ajax/get/local/applications
1614458977;0.10076594352722;/cronDeamon
1614458997;0.076521158218384;/tech-admin/deamon/tasks/4/queue-now
1614458997;0.046199083328247;/tech-admin/deamon/tasks/4
1614458999;0.076230049133301;/cronDeamon
1614459170;0.027698993682861;/tech-admin/deamon/tasks/4/queue-now
1614459170;0.050268173217773;/tech-admin/deamon/tasks/4
1614459170;0.018209934234619;/api/get/local/applications
1614459170;0.061785936355591;/ajax/get/local/applications
1614459358;0.081368923187256;/tech-admin/deamon/tasks/4/queue-now
1614459358;0.047010183334351;/tech-admin/deamon/tasks/4
1614459358;0.04181694984436;/api/get/local/applications
1614459358;0.12656807899475;/ajax/get/local/applications
1614459360;0.046848773956299;/ajax/set/local/token
1614459360;0.053106069564819;/ajax/set/local/token
1614459360;0.042813062667847;/ajax/set/local/token
1614459360;0.65150499343872;/cronDeamon
1614459429;0.090487957000732;/tech-admin/deamon/tasks/4/queue-now
1614459429;0.044580221176147;/tech-admin/deamon/tasks/4
1614459431;0.053960084915161;/ajax/set/local/token
1614459431;0.017305135726929;/ajax/set/local/token
1614459431;0.018051862716675;/ajax/set/local/token
1614459431;0.61682391166687;/cronDeamon
1614459506;0.042721033096313;/tech-admin/deamon/tasks/4/queue-now
1614459506;0.047910928726196;/tech-admin/deamon/tasks/4
1614459506;0.018394947052002;/api/get/local/applications
1614459506;0.06272292137146;/ajax/get/local/applications
1614459508;0.042405128479004;/ajax/set/local/token
1614459508;0.016044139862061;/ajax/set/local/token
1614459508;0.015930891036987;/ajax/set/local/token
1614459508;0.49950385093689;/cronDeamon
1614459700;0.071768999099731;/tech-admin/deamon/tasks/4/queue-now
1614459700;0.047111988067627;/tech-admin/deamon/tasks/4
1614459701;0.052390813827515;/api/get/local/applications
1614459701;0.12233686447144;/ajax/get/local/applications
1614459702;0.10219717025757;/cronDeamon
1614459710;0.040460824966431;/tech-admin/deamon/tasks/4/queue-now
1614459710;0.067198038101196;/tech-admin/deamon/tasks/4
1614459712;0.017132997512817;/ajax/set/local/token
1614459712;0.015695095062256;/ajax/set/local/token
1614459712;0.052572011947632;/ajax/set/local/token
1614459712;0.58567404747009;/cronDeamon
1614459987;0.056113004684448;/tech-admin/deamon/tasks/4/queue-now
1614459987;0.046932935714722;/tech-admin/deamon/tasks/4
1614459987;0.07077693939209;/api/get/local/applications
1614459987;0.11803603172302;/ajax/get/local/applications
1614459989;0.028072834014893;/ajax/set/local/token
1614459989;0.039615869522095;/ajax/set/local/token
1614459989;0.023998022079468;/ajax/set/local/token
1614459989;0.60327792167664;/cronDeamon
1614460066;0.06208610534668;/tech-admin/deamon/tasks/4/queue-now
1614460066;0.071329116821289;/tech-admin/deamon/tasks/4
1614460068;0.030845880508423;/ajax/set/local/token
1614460068;0.026051998138428;/ajax/set/local/token
1614460068;0.023576974868774;/ajax/set/local/token
1614460068;0.57618999481201;/cronDeamon
1614460084;0.051720142364502;/dashBoard
1614460085;0.061447143554688;/auth/agilitysalt_eshop/auto
1614460087;0.052209138870239;/auth/agilitysalt_eshop/auto
1614460087;0.038111209869385;/api/get/userLogin
1614460107;0.051689863204956;/api/get/userLogin
1614460110;0.017028093338013;/api/get/local/applications
1614460113;0.014549016952515;/api/get/local/applications
1614460116;0.064074039459229;/auth/agilitysalt_eshop/auto/?redirect=
1614460116;0.018821954727173;/api/get/local/applications
1614460116;0.06337308883667;/ajax/get/local/applications
1614460117;0.038480043411255;/auth/agilitysalt_eshop/auto/?redirect=
1614460117;0.058218002319336;/api/get/userLogin
1614460192;0.035351037979126;/
1614460192;0.06789493560791;/dashBoard
1614460194;0.084685087203979;/tech-admin/deamon
1614460195;0.076789855957031;/tech-admin/deamon/tasks/1
1614460196;0.077831029891968;/tech-admin/deamon
1614460198;0.067129850387573;/tech-admin/deamon/tasks/4
1614460199;0.049195051193237;/tech-admin/deamon/tasks/4/queue-now
1614460199;0.043737173080444;/tech-admin/deamon/tasks/4
1614460201;0.024630069732666;/ajax/set/local/token
1614460201;0.026686906814575;/ajax/set/local/token
1614460201;0.046724081039429;/ajax/set/local/token
1614460201;0.4873161315918;/cronDeamon
1614460294;0.070520162582397;/tech-admin/deamon/tasks/4/queue-now
1614460294;0.050136089324951;/tech-admin/deamon/tasks/4
1614460294;0.019048929214478;/api/get/local/applications
1614460294;0.062969923019409;/ajax/get/local/applications
1614460329;0.049460172653198;/tech-admin/deamon/tasks/4/queue-now
1614460329;0.04464316368103;/tech-admin/deamon/tasks/4
1614460331;0.0484938621521;/ajax/set/local/token
1614460331;0.058365821838379;/ajax/set/local/token
1614460332;0.073177099227905;/ajax/set/local/token
1614460332;0.048936128616333;/ajax/set/local/token
1614460332;0.082433938980103;/ajax/set/local/token
1614460332;0.081624031066895;/ajax/set/local/token
1614460332;1.5191171169281;/cronDeamon
1614460408;0.063740015029907;/tech-admin/deamon/tasks/4/queue-now
1614460408;0.047430992126465;/tech-admin/deamon/tasks/4
1614460410;0.025187969207764;/ajax/set/local/token
1614460410;0.040477991104126;/ajax/set/local/token
1614460410;0.052842140197754;/ajax/set/local/token
1614460411;0.92899703979492;/ajax/set/local/translations/download
1614460411;0.027692079544067;/ajax/set/local/token
1614460411;0.043610095977783;/ajax/set/local/token
1614460411;0.091214895248413;/ajax/set/local/token
1614460411;2.2859461307526;/cronDeamon
1614460572;0.04591703414917;/cronDeamon
1614460575;0.060735940933228;/tech-admin/deamon/tasks/4/queue-now
1614460575;0.046200037002563;/tech-admin/deamon/tasks/4
1614460576;0.018068075180054;/api/get/local/applications
1614460576;0.061017036437988;/ajax/get/local/applications
1614460577;0.025808095932007;/ajax/set/local/token
1614460578;0.027798891067505;/ajax/set/local/token
1614460578;0.051722049713135;/ajax/set/local/token
1614460578;0.6507089138031;/cronDeamon
1614460611;0.051103830337524;/tech-admin/deamon/tasks/4/queue-now
1614460611;0.042872905731201;/tech-admin/deamon/tasks/4
1614460614;0.027071952819824;/ajax/set/local/token
1614460614;0.042885065078735;/ajax/set/local/token
1614460614;0.069856882095337;/ajax/set/local/token
1614460614;0.7293541431427;/cronDeamon
1614460666;0.051470994949341;/tech-admin/deamon/tasks/4/queue-now
1614460666;0.045328140258789;/tech-admin/deamon/tasks/4
1614460668;0.055499792098999;/ajax/set/local/token
1614460668;0.076021909713745;/ajax/set/local/token
1614460668;0.059031009674072;/ajax/set/local/token
1614460668;0.88367295265198;/cronDeamon
1614462351;0.057785987854004;/ajax/set/local/token
1614462351;0.071324110031128;/ajax/set/local/token
1614462351;0.059375047683716;/ajax/set/local/token
1614462351;0.92604899406433;/cronDeamon
1614462355;0.065996170043945;/cronDeamon
1614462366;0.053455114364624;/tech-admin/deamon/tasks/4
1614462366;0.046772003173828;/login/?redirect=tech-admin/deamon/tasks/4
1614462367;0.051361083984375;/login/local//?redirect=tech-admin/deamon/tasks/4
1614462368;0.084120988845825;/tech-admin/deamon/tasks/4
1614462368;0.039781093597412;/api/get/local/applications
1614462368;0.085690021514893;/ajax/get/local/applications
1614462371;0.063515901565552;/cronDeamon
1614462436;0.10426616668701;/dashBoard
1614462561;0.042561054229736;/apps
1614462562;0.035031080245972;/api/get/local/applications
1614462562;0.081667900085449;/ajax/get/local/applications
1614462565;0.080941200256348;/apps/1
1614462584;0.05840802192688;/departments-users
1614462585;0.073170900344849;/departments
1614462587;0.06627893447876;/departments/1
1614462590;0.030658960342407;/langs
1614462592;0.065587043762207;/langs/1
1614462594;0.081918001174927;/translations
1614462600;0.056867837905884;/apps/1
1614462603;0.034397125244141;/apps
1614462607;0.069243192672729;/translations
1614462657;0.071589946746826;/translations/1
1614462659;0.046021223068237;/translations
1614462661;0.069752931594849;/translations/3
1614462664;0.062076091766357;/translations
1614462666;0.055508136749268;/translations/2
1614462669;0.0573410987854;/apps
1614462671;0.056432008743286;/apps/2
1614462675;0.061229944229126;/langs/new?app_id=2
1614462675;0.024633169174194;/langs
1614462676;0.058743000030518;/translations
1614462681;0.078299045562744;/apps
1614462683;0.079133033752441;/apps/3
1614462684;0.02089786529541;/api/get/local/applications
1614462684;0.072980880737305;/ajax/get/local/applications
1614462688;0.058249950408936;/apps/3/addStaff
1614462688;0.060559034347534;/apps/3
1614462696;0.054064035415649;/api/set/local/app/uppdate_staff/7
1614462699;0.051067113876343;/translations
1614462703;0.082320928573608;/apps
1614462705;0.063031911849976;/apps/2
1614462709;0.051331996917725;/dashBoard
1614462714;0.084927082061768;/translations
1614462717;0.064356088638306;/apps
1614462719;0.08172607421875;/dashBoard
1614462734;0.066061019897461;/departments-users
1614462736;0.079899072647095;/departments-users/13/rights
1614462737;0.056267976760864;/departments-users
1614462738;0.069369077682495;/departments-users/16/rights
1614462739;0.089037895202637;/departments-users
1614462740;0.063513994216919;/departments-users/10/rights
1614462741;0.019975185394287;/ajax/get/local/user/rights
1614462741;0.098787069320679;/api/get/remote/user/rights/app_ldap_portal/10
1614462754;0.092019081115723;/api/get/remote/user/rights/app_agilitysalt_cdn/10
1614462788;0.13776111602783;/api/get/remote/user/rights/app_agilitysalt_eshop/10
1614463009;0.14957785606384;/api/get/remote/user/rights/app_agilitysalt_eshop/10
1614463023;0.040527105331421;/departments-users/10/rights
1614463024;0.021865844726562;/api/get/local/applications
1614463024;0.071159839630127;/ajax/get/local/applications
1614463029;0.1457200050354;/api/get/remote/user/rights/app_agilitysalt_cdn/10
1614463173;0.14379382133484;/api/get/remote/user/rights/app_agilitysalt_eshop/10
1614463384;0.02725887298584;/api/set/remote/translations/missing
1614463384;0.11473107337952;/departments-users/10/rights
1614463384;0.01753306388855;/api/get/local/applications
1614463384;0.071635961532593;/ajax/get/local/applications
1614463420;0.020496129989624;/api/set/remote/translations/missing
1614463420;0.09935188293457;/departments-users/10/rights
1614463469;0.038418054580688;/departments-users/10/rights
1614463471;0.12813782691956;/api/get/remote/user/rights/app_agilitysalt_eshop/10
1614463494;0.063338994979858;/departments-users/10/rights
1614463496;0.13683986663818;/api/get/remote/user/rights/app_agilitysalt_eshop/10
1614463790;0.045809030532837;/departments-users/10/rights
1614463791;0.052653074264526;/api/get/local/applications
1614463791;0.10322189331055;/ajax/get/local/applications
1614463792;0.14846301078796;/api/get/remote/user/rights/app_agilitysalt_eshop/10
1614463814;0.060589075088501;/departments-users/10/rights
1614463815;0.16097617149353;/api/get/remote/user/rights/app_agilitysalt_eshop/10
1614463874;0.041948080062866;/departments-users/10/rights
1614463875;0.12820315361023;/api/get/remote/user/rights/app_agilitysalt_eshop/10
1614463905;0.053837060928345;/departments-users/10/rights
1614463907;0.13081812858582;/api/get/remote/user/rights/app_agilitysalt_eshop/10
1614463926;0.058529853820801;/apps
1614463927;0.053788900375366;/api/get/local/applications
1614463927;0.11054682731628;/ajax/get/local/applications
1614463928;0.074847936630249;/dashBoard
1614463933;0.063015937805176;/departments-users
1614463934;0.055544137954712;/departments-users/10/rights
1614463936;0.05807900428772;/ajax/get/local/user/rights
1614463936;0.14854097366333;/api/get/remote/user/rights/app_ldap_portal/10
1614463941;0.068176984786987;/dashBoard
1614463944;0.071877956390381;/auth/agilitysalt_cdn/auto
1614463945;0.060372114181519;/dashBoard
1614463947;0.06477689743042;/apps/3
1614463955;0.068351984024048;/apps/3/addStaff
1614463955;0.063551902770996;/apps/3
1614463960;0.048918962478638;/api/set/local/app/uppdate_staff/9
1614463965;0.065274000167847;/departments-users
1614463967;0.061280012130737;/departments-users/10/rights
1614463968;0.045083045959473;/ajax/get/local/user/rights
1614463968;0.11616587638855;/api/get/remote/user/rights/app_ldap_portal/10
1614463975;0.043728828430176;/dashBoard
1614463989;0.060787200927734;/admin
1614463991;0.066682815551758;/admin/13
1614463993;0.045608997344971;/admin/13/activate_account
1614463993;0.045439958572388;/admin/13
1614463994;0.058857917785645;/departments-users
1614463995;0.086875915527344;/departments-users/10/rights
1614463997;0.056217908859253;/ajax/get/local/user/rights
1614463997;0.15364503860474;/api/get/remote/user/rights/app_ldap_portal/10
1614464016;0.073775053024292;/tech-admin/deamon
1614504161;0.044615030288696;/tech-admin/deamon
1614504161;0.066240072250366;/login/?redirect=tech-admin/deamon
1614504162;0.02556586265564;/login/local//?redirect=tech-admin/deamon
1614504162;0.074461221694946;/tech-admin/deamon
1614504162;0.019085884094238;/api/get/local/applications
1614504162;0.062260150909424;/ajax/get/local/applications
1614504461;0.084052085876465;/ajax/set/local/token
1614504461;0.063555002212524;/ajax/set/local/token
1614504461;0.063627004623413;/ajax/set/local/token
1614504462;0.060175895690918;/ajax/set/local/token
1614504462;0.059476137161255;/ajax/set/local/token
1614504462;0.064362049102783;/ajax/set/local/token
1614504463;0.063606023788452;/ajax/set/local/token
1614504463;0.06064510345459;/ajax/set/local/token
1614504463;0.059838056564331;/ajax/set/local/token
1614504463;0.064697027206421;/ajax/set/local/token
1614504464;0.049583911895752;/ajax/set/local/token
1614504464;0.061853885650635;/ajax/set/local/token
1614504464;0.026027202606201;/ajax/set/local/token
1614504464;0.026231050491333;/ajax/set/local/token
1614504464;0.026748895645142;/ajax/set/local/token
1614504464;4.5421090126038;/cronDeamon
1614504503;0.16392493247986;/cronDeamon
1614504510;0.16165614128113;/cronDeamon
1614504512;0.16142106056213;/cronDeamon
1614504512;0.21407794952393;/cronDeamon
1614504514;0.058373928070068;/cronDeamon
1614504515;0.07204794883728;/cronDeamon
1614504520;0.23796010017395;/tech-admin/deamon
1614504520;0.061868906021118;/api/get/local/applications
1614504520;0.17011690139771;/ajax/get/local/applications
1614504593;0.022174835205078;/api/set/remote/translations/missing
1614504593;0.13322615623474;/tech-admin/deamon
1614504643;0.070714950561523;/tech-admin/deamon
1614504643;0.021987915039062;/api/get/local/applications
1614504643;0.072171926498413;/ajax/get/local/applications
1614504665;0.021131038665771;/api/set/remote/translations/missing
1614504665;0.11815404891968;/tech-admin/deamon
1614504676;0.14719009399414;/admin/0
1614504677;0.091209173202515;/tech-admin/deamon
1614504860;0.064599990844727;/departments-users
1614504860;0.087625026702881;/api/get/local/applications
1614504860;0.15868997573853;/ajax/get/local/applications
1614504861;0.066941022872925;/departments-users/10/rights
1614504862;0.056462049484253;/ajax/get/local/user/rights
1614504862;0.12965297698975;/api/get/remote/user/rights/app_ldap_portal/10
1614504946;0.065064907073975;/departments
1614504947;0.065399169921875;/departments-users
1614504948;0.056416034698486;/departments
1614504949;0.071635961532593;/departments/1
1614504977;0.084894895553589;/departments
1614504979;0.090807914733887;/departments/1
1614504979;0.028618097305298;/departments
1614504981;0.0901780128479;/departments/2
1614504981;0.019979000091553;/api/get/local/applications
1614504981;0.063023805618286;/ajax/get/local/applications
1614505034;0.068444013595581;/cronDeamon
1614505038;0.11566591262817;/tech-admin/deamon
1614505042;0.082096099853516;/tech-admin/deamon/tasks/6
1614505500;0.084696054458618;/cronDeamon
1614505508;0.077189207077026;/tech-admin/deamon/tasks/6/queue-now
1614505508;0.065927028656006;/tech-admin/deamon/tasks/6
1614505508;0.021757125854492;/api/get/local/applications
1614505508;0.064939975738525;/ajax/get/local/applications
1614505515;0.083547115325928;/cronDeamon
1614505517;0.085973024368286;/cronDeamon
1614505572;0.055835008621216;/tech-admin/deamon/tasks/6/queue-now
1614505572;0.046473979949951;/tech-admin/deamon/tasks/6
1614505573;0.083788871765137;/cronDeamon
1614505587;0.10213303565979;/tech-admin/deamon
1614505596;0.04399585723877;/tech-admin/deamon/queue/200
1614505605;0.056883096694946;/tech-admin/deamon/queue/1
1614505612;0.080542087554932;/tech-admin/deamon/queue/200
1614505612;0.10079908370972;/tech-admin/deamon
1614505622;0.022934913635254;/api/set/remote/translations/missing
1614505622;0.13534712791443;/tech-admin/deamon/tasks/1
1614505631;0.080013036727905;/tech-admin/deamon/queue/1
1614505632;0.052633047103882;/api/get/local/applications
1614505632;0.1189911365509;/ajax/get/local/applications
1614505633;0.10642194747925;/tech-admin/deamon/tasks/1
1614505696;0.12886595726013;/tech-admin/deamon
1614505753;0.089503049850464;/tech-admin/deamon
1614505753;0.017182111740112;/api/get/local/applications
1614505753;0.072376012802124;/ajax/get/local/applications
1614505769;0.046437978744507;/tech-admin/deamon/tasks/1
1614505841;0.026015043258667;/tech-admin/deamon/tasks/1/queue-now
1614505841;0.11136293411255;/tech-admin/deamon/tasks/1
1614505842;0.10296511650085;/tech-admin/deamon
1614505845;0.15496301651001;/cronDeamon
1614505847;0.098119974136353;/tech-admin/deamon
1614507122;0.062190055847168;/dashBoard
1614507123;0.020232915878296;/api/get/local/applications
1614507123;0.071250915527344;/ajax/get/local/applications
1614507566;0.039332866668701;/dashBoard
1614507566;0.054646968841553;/api/get/local/applications
1614507566;0.12351703643799;/ajax/get/local/applications
1614507579;0.06905722618103;/apps
1614507583;0.08005690574646;/apps/1
1614507619;0.040623903274536;/departments
1614507621;0.056934118270874;/apps
1614507622;0.04279088973999;/apps/4
1614525589;0.074580907821655;/dashBoard
1614525589;0.028328895568848;/login/?redirect=dashBoard
1614525592;0.050240039825439;/login/local//?redirect=dashBoard
1614525592;0.056443929672241;/dashBoard
1614525592;0.017809152603149;/api/get/local/applications
1614525592;0.061793088912964;/ajax/get/local/applications
1614525617;0.08760404586792;/tech-admin/deamon
1614525628;0.02637791633606;/ajax/set/local/token
1614525628;0.027011156082153;/ajax/set/local/token
1614525628;0.025146961212158;/ajax/set/local/token
1614525628;0.67488718032837;/cronDeamon
1614525659;0.10363698005676;/tech-admin/deamon
1614525682;0.11705899238586;/tech-admin/deamon/tasks/2
1614525694;0.10725092887878;/tech-admin/deamon
1614540589;0.031912088394165;/tech-admin/deamon
1614540589;0.049908876419067;/login/?redirect=tech-admin/deamon
1614540590;0.02603816986084;/login/local//?redirect=tech-admin/deamon
1614540590;0.092146158218384;/tech-admin/deamon
1614540591;0.030107021331787;/api/get/local/applications
1614540591;0.084440946578979;/ajax/get/local/applications
1614540602;0.054980993270874;/tech-admin/deamon/tasks/1
1614540603;0.057537078857422;/tech-admin/deamon/tasks/1/queue-now
1614540603;0.049919843673706;/tech-admin/deamon/tasks/1
1614540612;0.10131406784058;/cronDeamon
1614540616;0.10397005081177;/tech-admin/deamon
1614540751;0.089505910873413;/tech-admin/deamon/tasks/6
1614540751;0.064079999923706;/api/get/local/applications
1614540751;0.12322282791138;/ajax/get/local/applications
1614540765;0.061623096466064;/tech-admin/gen-time
1614540766;0.11280584335327;/tech-admin/deamon
1614540769;0.081478118896484;/tech-admin/deamon/tasks/2
1614540773;0.076479911804199;/tech-admin/deamon
1614540774;0.081405878067017;/tech-admin/deamon/tasks/6
1614540777;0.089799165725708;/tech-admin/deamon
1614540779;0.081315994262695;/tech-admin/deamon/tasks/1
1614540797;0.091547012329102;/tech-admin/deamon
1614540832;0.050996780395508;/tech-admin/deamon/tasks/2
1614540849;0.054365873336792;/tech-admin/deamon/queue/227
1614540855;0.047497034072876;/tech-admin/deamon/tasks/2
1614540913;0.034478902816772;/tech-admin/deamon/queue/227
1614540914;0.03534984588623;/api/get/local/applications
1614540914;0.089094877243042;/ajax/get/local/applications
1614541112;0.092132091522217;/tech-admin/deamon
1614541112;0.026882886886597;/api/get/local/applications
1614541112;0.080264091491699;/ajax/get/local/applications
1614541412;0.091020822525024;/tech-admin/deamon
1614541412;0.036574125289917;/api/get/local/applications
1614541412;0.090587139129639;/ajax/get/local/applications
1614542012;0.097862958908081;/tech-admin/deamon
1614542012;0.024726867675781;/api/get/local/applications
1614542012;0.085385084152222;/ajax/get/local/applications
1614542061;0.08896279335022;/tech-admin/deamon/queue/324
1614542077;0.08457088470459;/tech-admin/deamon
1614542080;0.088526010513306;/tech-admin/deamon/queue/213
1614542129;0.11154198646545;/tech-admin/deamon
1614542171;0.067428112030029;/tech-admin/deamon/queue/213
1614542171;0.055837869644165;/api/get/local/applications
1614542171;0.11231184005737;/ajax/get/local/applications
1614542192;0.10192894935608;/tech-admin/deamon
1614542233;0.070316076278687;/tech-admin/deamon
1614542274;0.077552080154419;/tech-admin/deamon
1614542304;0.095450162887573;/tech-admin/deamon
1614542305;0.021918058395386;/api/get/local/applications
1614542305;0.080611944198608;/ajax/get/local/applications
1614542317;0.074157953262329;/tech-admin/deamon
1614542437;0.11572289466858;/tech-admin/deamon
1614542437;0.054551839828491;/api/get/local/applications
1614542437;0.11232995986938;/ajax/get/local/applications
1614543073;0.088448047637939;/tech-admin/deamon
1614543074;0.022401094436646;/api/get/local/applications
1614543074;0.086832046508789;/ajax/get/local/applications
1614543259;0.12924695014954;/tech-admin/deamon
1614543259;0.025908946990967;/api/get/local/applications
1614543259;0.075602054595947;/ajax/get/local/applications
1614543405;0.079255104064941;/tech-admin/deamon
1614543405;0.046251773834229;/api/get/local/applications
1614543405;0.11313509941101;/ajax/get/local/applications
1614543500;0.12486886978149;/tech-admin/deamon
1614543506;0.069993019104004;/cronDeamon
1614543511;0.095630168914795;/tech-admin/deamon
1614543563;0.10355615615845;/tech-admin/deamon
1614543564;0.04623818397522;/api/get/local/applications
1614543564;0.10038805007935;/ajax/get/local/applications
1614543593;0.068088054656982;/cronDeamon
1614543596;0.069027900695801;/tech-admin/deamon
1614543726;0.10069990158081;/tech-admin/deamon
1614543727;0.023770093917847;/api/get/local/applications
1614543727;0.097342967987061;/ajax/get/local/applications
1614543752;0.095043897628784;/tech-admin/deamon
1614543792;0.090596914291382;/tech-admin/deamon
1614543806;0.093999862670898;/tech-admin/deamon
1614543863;0.10607004165649;/tech-admin/deamon
1614543864;0.022454977035522;/api/get/local/applications
1614543864;0.10242605209351;/ajax/get/local/applications
1614544339;0.034946203231812;/tech-admin/deamon
1614544339;0.044748783111572;/login/?redirect=tech-admin/deamon
1614544341;0.031768083572388;/login/local//?redirect=tech-admin/deamon
1614544341;0.075824975967407;/tech-admin/deamon
1614544341;0.023634195327759;/api/get/local/applications
1614544341;0.081702947616577;/ajax/get/local/applications
1614544394;0.13014912605286;/tech-admin/deamon
1614544411;0.09524393081665;/tech-admin/deamon
1614544425;0.091232061386108;/tech-admin/deamon
1614544461;0.091957092285156;/tech-admin/deamon
1614544584;0.10042715072632;/tech-admin/deamon
1614544584;0.029665946960449;/api/get/local/applications
1614544584;0.08918285369873;/ajax/get/local/applications
1614544647;0.080222129821777;/tech-admin/deamon
1614544677;0.098935842514038;/tech-admin/deamon
1614544708;0.092753887176514;/tech-admin/deamon
1614544708;0.045807838439941;/api/get/local/applications
1614544708;0.096081018447876;/ajax/get/local/applications
1614544745;0.11283802986145;/tech-admin/deamon
1614544788;0.028589963912964;/api/set/remote/translations/missing
1614544788;0.16834306716919;/tech-admin/deamon
1614545018;0.047003030776978;/admin/10
1614545019;0.03840708732605;/api/get/local/applications
1614545019;0.090300798416138;/ajax/get/local/applications
1614545097;0.036423921585083;/admin/0
1614545106;0.073050975799561;/apps
1614545108;0.066102981567383;/apps/1
1614545156;0.046348094940186;/dashBoard
1614545156;0.024790048599243;/api/get/local/applications
1614545156;0.081614971160889;/ajax/get/local/applications
1614545162;0.07569694519043;/tech-admin/deamon
1614545169;0.048489093780518;/cronDeamon
1614545173;0.12158799171448;/tech-admin/deamon
1614545189;0.059015989303589;/tech-admin/deamon/queue/310
1614545194;0.063534021377563;/tech-admin/deamon
1614545253;0.058340072631836;/tech-admin/deamon/queue/310
1614545257;0.11741709709167;/tech-admin/deamon
1614545289;0.086504936218262;/tech-admin/deamon/tasks/6
1614545290;0.031126976013184;/api/get/local/applications
1614545290;0.081275224685669;/ajax/get/local/applications
1614545292;0.055348873138428;/tech-admin/deamon/tasks/6/queue-now
1614545292;0.10793995857239;/tech-admin/deamon/tasks/6
1614545342;0.074993133544922;/cronDeamon
1614545348;0.088007926940918;/tech-admin/deamon/tasks/6
1614545352;0.088443994522095;/tech-admin/deamon
1614545358;0.068049907684326;/tech-admin/deamon/tasks/6
1614545360;0.056983947753906;/tech-admin/deamon/tasks/6/queue-now
1614545360;0.075114011764526;/tech-admin/deamon/tasks/6
1614545360;0.046974182128906;/tech-admin/deamon/tasks/6/queue-now
1614545361;0.080510854721069;/tech-admin/deamon/tasks/6
1614545372;0.084723949432373;/tech-admin/deamon
1614545375;0.082054853439331;/cronDeamon
1614545379;0.094892978668213;/tech-admin/deamon
1614545466;0.06718111038208;/tech-admin/deamon/tasks/6
1614545466;0.024554014205933;/api/get/local/applications
1614545466;0.085490226745605;/ajax/get/local/applications
1614545467;0.058218002319336;/tech-admin/deamon/tasks/6/queue-now
1614545467;0.10656809806824;/tech-admin/deamon/tasks/6
1614545468;0.056472063064575;/tech-admin/deamon/tasks/6/queue-now
1614545468;0.04531717300415;/tech-admin/deamon/tasks/6
1614545470;0.090245962142944;/cronDeamon
1614545472;0.056756019592285;/cronDeamon
1614545474;0.083040952682495;/tech-admin/deamon
1614545516;0.099139213562012;/tech-admin/deamon
1614545628;0.10412693023682;/tech-admin/deamon
1614545628;0.020680904388428;/api/get/local/applications
1614545628;0.1019389629364;/ajax/get/local/applications
1614545629;0.067893028259277;/cronDeamon
1614545631;0.096001863479614;/tech-admin/deamon
1614545729;0.097877025604248;/tech-admin/deamon
1614545798;0.1360170841217;/tech-admin/deamon
1614545799;0.047918796539307;/api/get/local/applications
1614545799;0.13743805885315;/ajax/get/local/applications
1614545894;0.0798180103302;/cronDeamon
1614545900;0.091957807540894;/tech-admin/deamon
1614552304;0.050110101699829;/dashBoard
1614552304;0.023711919784546;/login/?redirect=dashBoard
1614552306;0.051888942718506;/login/local//?redirect=dashBoard
1614552306;0.031463861465454;/dashBoard
1614552306;0.019223213195801;/api/get/local/applications
1614552306;0.067070007324219;/ajax/get/local/applications
1614552308;0.096593856811523;/tech-admin/deamon
1614552321;0.07965612411499;/tech-admin/deamon/queue/202
1614552337;0.12957096099854;/tech-admin/deamon
1614552339;0.066780090332031;/tech-admin/deamon/tasks/1
1614552369;0.095609903335571;/tech-admin/deamon
1614552371;0.062739133834839;/tech-admin/deamon/tasks/6
1614552382;0.11818289756775;/tech-admin/deamon
1614552393;0.064814805984497;/dashBoard
1614552401;0.091869115829468;/auth/agilitysalt_cdn/auto
1614552403;0.056217908859253;/auth/agilitysalt_cdn/auto
1614552403;0.055155038833618;/api/get/userLogin
1614552403;0.035102844238281;/api/get/local/applications
1614552410;0.027381896972656;/
1614552410;0.042283058166504;/dashBoard
1614552412;0.072038888931274;/departments-users
1614552415;0.095026969909668;/departments-users/10/rights
1614552417;0.072350978851318;/api/get/remote/user/rights/app_dkspeed_cdn/10
1614552420;0.11555218696594;/api/get/remote/user/rights/app_agilitysalt_cdn/10
1614552445;0.13693499565125;/api/get/remote/user/rights/app_agilitysalt_cdn/10
1614552458;0.11905193328857;/api/get/remote/user/rights/app_agilitysalt_cdn/10
1614552485;0.069730043411255;/departments-users
1614552485;0.029479026794434;/api/get/local/applications
1614552485;0.08247184753418;/ajax/get/local/applications
1614552486;0.057566165924072;/departments
1614552489;0.064931869506836;/departments/1
1614552494;0.06724214553833;/departments
1614552496;0.058412790298462;/departments-users
1614552501;0.054449081420898;/departments/2
1614552502;0.074454069137573;/departments-users
1614552504;0.061300992965698;/departments/3
1614552507;0.058990001678467;/admin
1614552510;0.08934211730957;/admin/13
1614552513;0.078371047973633;/admin/13/admin_login
1614552513;0.03397011756897;/dashBoard
1614552513;0.021955966949463;/api/get/local/applications
1614552513;0.073998928070068;/ajax/get/local/applications
1614552516;0.06889820098877;/departments-users
1614552518;0.046268939971924;/departments-users/10/rights
1614552519;0.13072609901428;/api/get/remote/user/rights/app_agilitysalt_eshop/10
1614552525;0.12315702438354;/api/get/remote/user/rights/app_agilitysalt_cdn/10
1614552539;0.11923313140869;/api/get/remote/user/rights/app_agilitysalt_cdn/10
1614552542;0.037449836730957;/departments-users
1614552544;0.069756031036377;/departments-users/10/rights
1614552545;0.038444995880127;/departments-users
1614552546;0.051666021347046;/departments-users/13/rights
1614552547;0.13907384872437;/api/get/remote/user/rights/app_agilitysalt_cdn/13
1614552558;0.26736211776733;/departments-users/13/rights/manage_rights
1614552558;0.04802393913269;/departments-users/13/rights
1614552563;0.13978695869446;/api/get/remote/user/rights/app_agilitysalt_cdn/13
1614552566;0.13273096084595;/api/get/remote/user/rights/app_agilitysalt_eshop/13
1614552587;0.065014123916626;/dashBoard
1614591938;0.34705901145935;/dashBoard
1614591938;0.29182410240173;/login/?redirect=dashBoard
1614591941;0.05766487121582;/login/local//?redirect=dashBoard
1614591941;0.094403982162476;/dashBoard
1614591941;0.037813901901245;/api/get/local/applications
1614591941;0.16791486740112;/ajax/get/local/applications
1614592117;0.060137033462524;/dashBoard
1614592117;0.023829936981201;/api/get/local/applications
1614592117;0.084968090057373;/ajax/get/local/applications
1614593294;0.056513071060181;/dashBoard
1614593295;0.030114889144897;/api/get/local/applications
1614593295;0.10162401199341;/ajax/get/local/applications
1614595598;0.043200969696045;/dashBoard
1614595598;0.032684087753296;/login/?redirect=dashBoard
1614595599;0.030691146850586;/login/local//?redirect=dashBoard
1614595599;0.060698986053467;/dashBoard
1614595600;0.028081893920898;/api/get/local/applications
1614595600;0.092931985855103;/ajax/get/local/applications
1614599245;0.082720041275024;/tech-admin/deamon
1614599245;0.031367063522339;/login/?redirect=tech-admin/deamon
1614599247;0.056134939193726;/login/local//?redirect=tech-admin/deamon
1614599247;0.17258882522583;/tech-admin/deamon
1614599247;0.043923139572144;/api/get/local/applications
1614599247;0.11323809623718;/ajax/get/local/applications
1614608414;0.044122934341431;/dashBoard
1614608414;0.053581953048706;/login/?redirect=dashBoard
1614608416;0.037007093429565;/login/local//?redirect=dashBoard
1614608416;0.035233020782471;/dashBoard
1614608416;0.027093887329102;/api/get/local/applications
1614608416;0.090505123138428;/ajax/get/local/applications
1614608512;0.12398314476013;/tech-admin/deamon
1614608542;0.063639879226685;/tech-admin/deamon/queue/329
1614608542;0.021781921386719;/api/get/local/applications
1614608542;0.080611944198608;/ajax/get/local/applications
1614608544;0.11251997947693;/tech-admin/deamon
1614608548;0.17540001869202;/cronDeamon
1614608550;0.10828804969788;/tech-admin/deamon
1614608671;0.11138296127319;/tech-admin/deamon
1614608672;0.034965991973877;/api/get/local/applications
1614608672;0.098294973373413;/ajax/get/local/applications
1614608709;0.070655107498169;/tech-admin/deamon/queue/329
1614608738;0.073454141616821;/dashBoard
1614608748;0.082525014877319;/tech-admin/gen-time
1614608758;0.05594801902771;/tech-admin/gen-time
1614608760;0.11477398872375;/tech-admin/deamon
1614608957;0.038790225982666;/tech-admin/deamon
1614608957;0.029782056808472;/api/get/local/applications
1614608957;0.088370084762573;/ajax/get/local/applications
1614609560;0.048794984817505;/tech-admin/deamon
1614609561;0.020301818847656;/api/get/local/applications
1614609561;0.070307970046997;/ajax/get/local/applications
1614609563;0.11025381088257;/tech-admin/deamon/tasks/3
1614609565;0.033583879470825;/tech-admin/deamon/tasks/3/queue-now
1614609565;0.032259941101074;/tech-admin/deamon/tasks/3
1614609566;0.04166316986084;/tech-admin/deamon
